Uso da API da Câmara via R e Análise de sentimento
…
---

## E o PT?

No úlimo gráfico, vemos que os deputados do PT propuseram muitas emendas. Vamos ver com mais calma...

```r
autores_proponentes %>% filter(siglaPartido == "PT") %>% 
  group_by(id_emenda) %>% summarise(n=n_distinct(id_deputado)) %>% 
  arrange(desc(n))
```

```
## # A tibble: 29 x 2
##    id_emenda     n
##        <int> <int>
##  1   2205946    54
##  2   2205947    54
##  3   2205948    54
##  4   2205949    54
##  5   2205950    54
##  6   2205951    54
##  7   2205952    54
##  8   2205954    54
##  9   2205953    53
## 10   2205543     1
## # … with 19 more rows
```
…
